%YAML 1.1
%TAG !u! tag:unity3d.com,2011:
--- !u!74 &7400000
AnimationClip:
  m_ObjectHideFlags: 0
  m_CorrespondingSourceObject: {fileID: 0}
  m_PrefabInstance: {fileID: 0}
  m_PrefabAsset: {fileID: 0}
  m_Name: Progress-1
  serializedVersion: 6
  m_Legacy: 0
  m_Compressed: 0
  m_UseHighQualityCurve: 1
  m_RotationCurves: []
  m_CompressedRotationCurves: []
  m_EulerCurves: []
  m_PositionCurves: []
  m_ScaleCurves:
  - curve:
      serializedVersion: 2
      m_Curve:
      - serializedVersion: 3
        time: 0
        value: {x: 0.6, y: 1, z: 1}
        inSlope: {x: 0, y: 0, z: 0}
        outSlope: {x: 0, y: 0, z: 0}
        tangentMode: 0
        weightedMode: 0
        inWeight: {x: 0.33333334, y: 0.33333334, z: 0.33333334}
        outWeight: {x: 0.33333334, y: 0.33333334, z: 0.33333334}
      - serializedVersion: 3
        time: 1.3
        value: {x: 1, y: 1, z: 1}
        inSlope: {x: 0, y: 0, z: 0}
        outSlope: {x: 0, y: 0, z: 0}
        tangentMode: 0
        weightedMode: 0
        inWeight: {x: 0.33333334, y: 0.33333334, z: 0.33333334}
        outWeight: {x: 0.33333334, y: 0.33333334, z: 0.33333334}
      m_PreInfinity: 2
      m_PostInfinity: 2
      m_RotationOrder: 4
    path: Glow
  m_FloatCurves:
  - curve:
      serializedVersion: 2
      m_Curve:
      - serializedVersion: 3
        time: 0
        value: 0
        inSlope: 0
        outSlope: 0
        tangentMode: 136
        weightedMode: 0
        inWeight: 0.33333334
        outWeight: 0.33333334
      - serializedVersion: 3
        time: 0.6666667
        value: 0.09803922
        inSlope: 0
        outSlope: 0
        tangentMode: 136
        weightedMode: 0
        inWeight: 0.33333334
        outWeight: 0.33333334
      - serializedVersion: 3
        time: 1.3
        value: 0
        inSlope: 0
        outSlope: 0
        tangentMode: 136
        weightedMode: 0
        inWeight: 0.33333334
        outWeight: 0.33333334
      m_PreInfinity: 2
      m_PostInfinity: 2
      m_RotationOrder: 4
    attribute: m_Color.a
    path: Glow
    classID: 114
    script: {fileID: 11500000, guid: fe87c0e1cc204ed48ad3b37840f39efc, type: 3}
  m_PPtrCurves:
  - curve:
    - time: 0
      value: {fileID: 21300000, guid: 61d95c83de6ca8248883eb3751768639, type: 3}
    - time: 0.033333335
      value: {fileID: 21300002, guid: 61d95c83de6ca8248883eb3751768639, type: 3}
    - time: 0.06666667
      value: {fileID: 21300004, guid: 61d95c83de6ca8248883eb3751768639, type: 3}
    - time: 0.1
      value: {fileID: 21300006, guid: 61d95c83de6ca8248883eb3751768639, type: 3}
    - time: 0.13333334
      value: {fileID: 21300008, guid: 61d95c83de6ca8248883eb3751768639, type: 3}
    - time: 0.16666667
      value: {fileID: 21300010, guid: 61d95c83de6ca8248883eb3751768639, type: 3}
    - time: 0.2
      value: {fileID: 21300012, guid: 61d95c83de6ca8248883eb3751768639, type: 3}
    - time: 0.23333333
      value: {fileID: 21300014, guid: 61d95c83de6ca8248883eb3751768639, type: 3}
    - time: 0.26666668
      value: {fileID: 21300016, guid: 61d95c83de6ca8248883eb3751768639, type: 3}
    - time: 0.3
      value: {fileID: 21300018, guid: 61d95c83de6ca8248883eb3751768639, type: 3}
    - time: 0.33333334
      value: {fileID: 21300020, guid: 61d95c83de6ca8248883eb3751768639, type: 3}
    - time: 0.36666667
      value: {fileID: 21300022, guid: 61d95c83de6ca8248883eb3751768639, type: 3}
    - time: 0.4
      value: {fileID: 21300024, guid: 61d95c83de6ca8248883eb3751768639, type: 3}
    - time: 0.43333334
      value: {fileID: 21300026, guid: 61d95c83de6ca8248883eb3751768639, type: 3}
    - time: 0.46666667
      value: {fileID: 21300028, guid: 61d95c83de6ca8248883eb3751768639, type: 3}
    - time: 0.5
      value: {fileID: 21300030, guid: 61d95c83de6ca8248883eb3751768639, type: 3}
    - time: 0.53333336
      value: {fileID: 21300032, guid: 61d95c83de6ca8248883eb3751768639, type: 3}
    - time: 0.56666666
      value: {fileID: 21300034, guid: 61d95c83de6ca8248883eb3751768639, type: 3}
    - time: 0.6
      value: {fileID: 21300036, guid: 61d95c83de6ca8248883eb3751768639, type: 3}
    - time: 0.6333333
      value: {fileID: 21300038, guid: 61d95c83de6ca8248883eb3751768639, type: 3}
    - time: 0.6666667
      value: {fileID: 21300040, guid: 61d95c83de6ca8248883eb3751768639, type: 3}
    - time: 0.7
      value: {fileID: 21300042, guid: 61d95c83de6ca8248883eb3751768639, type: 3}
    - time: 0.73333335
      value: {fileID: 21300044, guid: 61d95c83de6ca8248883eb3751768639, type: 3}
    - time: 0.76666665
      value: {fileID: 21300046, guid: 61d95c83de6ca8248883eb3751768639, type: 3}
    - time: 0.8
      value: {fileID: 21300048, guid: 61d95c83de6ca8248883eb3751768639, type: 3}
    - time: 0.8333333
      value: {fileID: 21300050, guid: 61d95c83de6ca8248883eb3751768639, type: 3}
    - time: 0.8666667
      value: {fileID: 21300052, guid: 61d95c83de6ca8248883eb3751768639, type: 3}
    - time: 0.9
      value: {fileID: 21300054, guid: 61d95c83de6ca8248883eb3751768639, type: 3}
    - time: 0.93333334
      value: {fileID: 21300056, guid: 61d95c83de6ca8248883eb3751768639, type: 3}
    - time: 0.96666664
      value: {fileID: 21300058, guid: 61d95c83de6ca8248883eb3751768639, type: 3}
    - time: 1
      value: {fileID: 21300060, guid: 61d95c83de6ca8248883eb3751768639, type: 3}
    - time: 1.0333333
      value: {fileID: 21300062, guid: 61d95c83de6ca8248883eb3751768639, type: 3}
    - time: 1.0666667
      value: {fileID: 21300064, guid: 61d95c83de6ca8248883eb3751768639, type: 3}
    - time: 1.1
      value: {fileID: 21300066, guid: 61d95c83de6ca8248883eb3751768639, type: 3}
    - time: 1.1333333
      value: {fileID: 21300068, guid: 61d95c83de6ca8248883eb3751768639, type: 3}
    - time: 1.1666666
      value: {fileID: 21300070, guid: 61d95c83de6ca8248883eb3751768639, type: 3}
    - time: 1.2
      value: {fileID: 21300072, guid: 61d95c83de6ca8248883eb3751768639, type: 3}
    - time: 1.2333333
      value: {fileID: 21300074, guid: 61d95c83de6ca8248883eb3751768639, type: 3}
    - time: 1.2666667
      value: {fileID: 21300076, guid: 61d95c83de6ca8248883eb3751768639, type: 3}
    - time: 1.3
      value: {fileID: 21300078, guid: 61d95c83de6ca8248883eb3751768639, type: 3}
    attribute: m_Sprite
    path: Image
    classID: 114
    script: {fileID: 11500000, guid: fe87c0e1cc204ed48ad3b37840f39efc, type: 3}
  m_SampleRate: 60
  m_WrapMode: 0
  m_Bounds:
    m_Center: {x: 0, y: 0, z: 0}
    m_Extent: {x: 0, y: 0, z: 0}
  m_ClipBindingConstant:
    genericBindings:
    - serializedVersion: 2
      path: 1246633515
      attribute: 3
      script: {fileID: 0}
      typeID: 4
      customType: 0
      isPPtrCurve: 0
    - serializedVersion: 2
      path: 1246633515
      attribute: 304273561
      script: {fileID: 11500000, guid: fe87c0e1cc204ed48ad3b37840f39efc, type: 3}
      typeID: 114
      customType: 0
      isPPtrCurve: 0
    - serializedVersion: 2
      path: 83635035
      attribute: 2015549526
      script: {fileID: 11500000, guid: fe87c0e1cc204ed48ad3b37840f39efc, type: 3}
      typeID: 114
      customType: 0
      isPPtrCurve: 1
    pptrCurveMapping:
    - {fileID: 21300000, guid: 61d95c83de6ca8248883eb3751768639, type: 3}
    - {fileID: 21300002, guid: 61d95c83de6ca8248883eb3751768639, type: 3}
    - {fileID: 21300004, guid: 61d95c83de6ca8248883eb3751768639, type: 3}
    - {fileID: 21300006, guid: 61d95c83de6ca8248883eb3751768639, type: 3}
    - {fileID: 21300008, guid: 61d95c83de6ca8248883eb3751768639, type: 3}
    - {fileID: 21300010, guid: 61d95c83de6ca8248883eb3751768639, type: 3}
    - {fileID: 21300012, guid: 61d95c83de6ca8248883eb3751768639, type: 3}
    - {fileID: 21300014, guid: 61d95c83de6ca8248883eb3751768639, type: 3}
    - {fileID: 21300016, guid: 61d95c83de6ca8248883eb3751768639, type: 3}
    - {fileID: 21300018, guid: 61d95c83de6ca8248883eb3751768639, type: 3}
    - {fileID: 21300020, guid: 61d95c83de6ca8248883eb3751768639, type: 3}
    - {fileID: 21300022, guid: 61d95c83de6ca8248883eb3751768639, type: 3}
    - {fileID: 21300024, guid: 61d95c83de6ca8248883eb3751768639, type: 3}
    - {fileID: 21300026, guid: 61d95c83de6ca8248883eb3751768639, type: 3}
    - {fileID: 21300028, guid: 61d95c83de6ca8248883eb3751768639, type: 3}
    - {fileID: 21300030, guid: 61d95c83de6ca8248883eb3751768639, type: 3}
    - {fileID: 21300032, guid: 61d95c83de6ca8248883eb3751768639, type: 3}
    - {fileID: 21300034, guid: 61d95c83de6ca8248883eb3751768639, type: 3}
    - {fileID: 21300036, guid: 61d95c83de6ca8248883eb3751768639, type: 3}
    - {fileID: 21300038, guid: 61d95c83de6ca8248883eb3751768639, type: 3}
    - {fileID: 21300040, guid: 61d95c83de6ca8248883eb3751768639, type: 3}
    - {fileID: 21300042, guid: 61d95c83de6ca8248883eb3751768639, type: 3}
    - {fileID: 21300044, guid: 61d95c83de6ca8248883eb3751768639, type: 3}
    - {fileID: 21300046, guid: 61d95c83de6ca8248883eb3751768639, type: 3}
    - {fileID: 21300048, guid: 61d95c83de6ca8248883eb3751768639, type: 3}
    - {fileID: 21300050, guid: 61d95c83de6ca8248883eb3751768639, type: 3}
    - {fileID: 21300052, guid: 61d95c83de6ca8248883eb3751768639, type: 3}
    - {fileID: 21300054, guid: 61d95c83de6ca8248883eb3751768639, type: 3}
    - {fileID: 21300056, guid: 61d95c83de6ca8248883eb3751768639, type: 3}
    - {fileID: 21300058, guid: 61d95c83de6ca8248883eb3751768639, type: 3}
    - {fileID: 21300060, guid: 61d95c83de6ca8248883eb3751768639, type: 3}
    - {fileID: 21300062, guid: 61d95c83de6ca8248883eb3751768639, type: 3}
    - {fileID: 21300064, guid: 61d95c83de6ca8248883eb3751768639, type: 3}
    - {fileID: 21300066, guid: 61d95c83de6ca8248883eb3751768639, type: 3}
    - {fileID: 21300068, guid: 61d95c83de6ca8248883eb3751768639, type: 3}
    - {fileID: 21300070, guid: 61d95c83de6ca8248883eb3751768639, type: 3}
    - {fileID: 21300072, guid: 61d95c83de6ca8248883eb3751768639, type: 3}
    - {fileID: 21300074, guid: 61d95c83de6ca8248883eb3751768639, type: 3}
    - {fileID: 21300076, guid: 61d95c83de6ca8248883eb3751768639, type: 3}
    - {fileID: 21300078, guid: 61d95c83de6ca8248883eb3751768639, type: 3}
  m_AnimationClipSettings:
    serializedVersion: 2
    m_AdditiveReferencePoseClip: {fileID: 0}
    m_AdditiveReferencePoseTime: 0
    m_StartTime: 0
    m_StopTime: 1.3166666
    m_OrientationOffsetY: 0
    m_Level: 0
    m_CycleOffset: 0
    m_HasAdditiveReferencePose: 0
    m_LoopTime: 1
    m_LoopBlend: 0
    m_LoopBlendOrientation: 0
    m_LoopBlendPositionY: 0
    m_LoopBlendPositionXZ: 0
    m_KeepOriginalOrientation: 0
    m_KeepOriginalPositionY: 1
    m_KeepOriginalPositionXZ: 0
    m_HeightFromFeet: 0
    m_Mirror: 0
  m_EditorCurves:
  - curve:
      serializedVersion: 2
      m_Curve:
      - serializedVersion: 3
        time: 0
        value: 0.6
        inSlope: 0
        outSlope: 0
        tangentMode: 136
        weightedMode: 0
        inWeight: 0.33333334
        outWeight: 0.33333334
      - serializedVersion: 3
        time: 1.3
        value: 1
        inSlope: 0
        outSlope: 0
        tangentMode: 136
        weightedMode: 0
        inWeight: 0.33333334
        outWeight: 0.33333334
      m_PreInfinity: 2
      m_PostInfinity: 2
      m_RotationOrder: 4
    attribute: m_LocalScale.x
    path: Glow
    classID: 224
    script: {fileID: 0}
  - curve:
      serializedVersion: 2
      m_Curve:
      - serializedVersion: 3
        time: 0
        value: 1
        inSlope: 0
        outSlope: 0
        tangentMode: 136
        weightedMode: 0
        inWeight: 0.33333334
        outWeight: 0.33333334
      - serializedVersion: 3
        time: 1.3
        value: 1
        inSlope: 0
        outSlope: 0
        tangentMode: 136
        weightedMode: 0
        inWeight: 0.33333334
        outWeight: 0.33333334
      m_PreInfinity: 2
      m_PostInfinity: 2
      m_RotationOrder: 4
    attribute: m_LocalScale.y
    path: Glow
    classID: 224
    script: {fileID: 0}
  - curve:
      serializedVersion: 2
      m_Curve:
      - serializedVersion: 3
        time: 0
        value: 1
        inSlope: 0
        outSlope: 0
        tangentMode: 136
        weightedMode: 0
        inWeight: 0.33333334
        outWeight: 0.33333334
      - serializedVersion: 3
        time: 1.3
        value: 1
        inSlope: 0
        outSlope: 0
        tangentMode: 136
        weightedMode: 0
        inWeight: 0.33333334
        outWeight: 0.33333334
      m_PreInfinity: 2
      m_PostInfinity: 2
      m_RotationOrder: 4
    attribute: m_LocalScale.z
    path: Glow
    classID: 224
    script: {fileID: 0}
  - curve:
      serializedVersion: 2
      m_Curve:
      - serializedVersion: 3
        time: 0
        value: 0
        inSlope: 0
        outSlope: 0
        tangentMode: 136
        weightedMode: 0
        inWeight: 0.33333334
        outWeight: 0.33333334
      - serializedVersion: 3
        time: 0.6666667
        value: 0.09803922
        inSlope: 0
        outSlope: 0
        tangentMode: 136
        weightedMode: 0
        inWeight: 0.33333334
        outWeight: 0.33333334
      - serializedVersion: 3
        time: 1.3
        value: 0
        inSlope: 0
        outSlope: 0
        tangentMode: 136
        weightedMode: 0
        inWeight: 0.33333334
        outWeight: 0.33333334
      m_PreInfinity: 2
      m_PostInfinity: 2
      m_RotationOrder: 4
    attribute: m_Color.a
    path: Glow
    classID: 114
    script: {fileID: 11500000, guid: fe87c0e1cc204ed48ad3b37840f39efc, type: 3}
  m_EulerEditorCurves: []
  m_HasGenericRootTransform: 0
  m_HasMotionFloatCurves: 0
  m_Events: []
